Division,WeightClassKg,Place,Name,Team,BodyweightKg,Best3SquatKg,Best3BenchKg,Best3DeadliftKg,TotalKg,Equipment,Event,Sex
Girls,44.23,1,Estefania Espino,Perryton,43.09,104.33,45.36,102.06,251.74,Single-ply,SBD,F
Girls,44.23,2,Evelyn Garcia,Plainview,38.56,72.57,29.48,77.11,179.17,Single-ply,SBD,F
Girls,44.23,3,Laiken Turner,Wolfforth Frenship,42.86,49.9,34.02,56.7,140.61,Single-ply,SBD,F
Girls,44.23,4,Joseline Salvador,Dimmitt,40.82,45.36,24.95,54.43,124.74,Single-ply,SBD,F
Girls,44.23,DQ,Saleen Nyman,Perryton,43.09,92.99,49.9,,,Single-ply,SBD,F
Girls,47.85,1,Karen Becerril,Perryton,46.27,111.13,61.23,115.67,288.03,Single-ply,SBD,F
Girls,47.85,2,Angel Ramos #1,Plainview,44.68,77.11,49.9,97.52,224.53,Single-ply,SBD,F
Girls,47.85,3,Fette Jackson,Lohn,45.13,83.91,45.36,79.38,208.65,Single-ply,SBD,F
Girls,47.85,4,Desirae Briseno,Dumas,46.95,77.11,38.56,79.38,195.04,Single-ply,SBD,F
Girls,47.85,DQ,Hannah Reyes,Plainview,46.27,88.45,,,,Single-ply,SBD,F
Girls,51.94,1,Heav'nly Noriega,Tulia,50.58,131.54,65.77,115.67,312.98,Single-ply,SBD,F
Girls,51.94,2,Kalissa Branch,Seagraves,51.26,102.06,52.16,115.67,269.89,Single-ply,SBD,F
Girls,51.94,3,Kaylee Mueller,Seagraves,51.48,99.79,49.9,115.67,265.35,Single-ply,SBD,F
Girls,51.94,4,Abby Mares,Dumas,51.26,102.06,47.63,111.13,260.82,Single-ply,SBD,F
Girls,51.94,5,Yudith Aranda,Seagraves,51.94,104.33,45.36,106.59,256.28,Single-ply,SBD,F
Girls,51.94,6,Jennifer Munoz,Plainview,50.35,86.18,43.09,117.93,247.21,Single-ply,SBD,F
Girls,51.94,7,Isabel Navarrete,Perryton,51.48,86.18,49.9,102.06,238.14,Single-ply,SBD,F
Girls,51.94,8,Reina Regalado,Muleshoe,49.21,90.72,40.82,97.52,229.06,Single-ply,SBD,F
Girls,51.94,9,Alexis Chavez #1,Ralls,51.71,79.38,36.29,88.45,204.12,Single-ply,SBD,F
Girls,51.94,10,Selyna Villapando,Lamesa,51.03,81.65,29.48,90.72,201.85,Single-ply,SBD,F
Girls,51.94,11,Alyssa Salazar,Ralls,51.71,79.38,31.75,83.91,195.04,Single-ply,SBD,F
Girls,51.94,12,Jocelyn Marroquin,Lamesa,48.53,70.31,27.22,79.38,176.9,Single-ply,SBD,F
Girls,51.94,13,Ginny Somphou,Dumas,49.67,81.65,36.29,47.63,165.56,Single-ply,SBD,F
Girls,51.94,14,Jasmine Rodriguez,Dimmitt,49.44,65.77,27.22,70.31,163.29,Single-ply,SBD,F
Girls,56.02,1,Karisa Minjarez,Seagraves,55.79,117.93,56.7,117.93,292.57,Single-ply,SBD,F
Girls,56.02,2,Britney Olivas,Dumas,55.11,113.4,63.5,90.72,267.62,Single-ply,SBD,F
Girls,56.02,3,Melissa Ramos,Perryton,55.57,92.99,47.63,111.13,251.74,Single-ply,SBD,F
Girls,56.02,4,Kk Minjarez,Seagraves,55.11,95.25,52.16,102.06,249.48,Single-ply,SBD,F
Girls,56.02,5,Brianna Rodriguez #1,Seagraves,55.34,104.33,45.36,97.52,247.21,Single-ply,SBD,F
Girls,56.02,6,Chloe Dunn,Levelland,52.39,79.38,52.16,97.52,229.06,Single-ply,SBD,F
Girls,56.02,7,Kayla Torres,Muleshoe,56.02,83.91,49.9,95.25,229.06,Single-ply,SBD,F
Girls,56.02,8,Sckylar Alvarez,Levelland,52.84,81.65,54.43,83.91,219.99,Single-ply,SBD,F
Girls,56.02,9,Angel Sotelo,Ralls,52.62,102.06,31.75,83.91,217.72,Single-ply,SBD,F
Girls,56.02,10,Audrie Strange,Floydada,55.34,81.65,34.02,86.18,201.85,Single-ply,SBD,F
Girls,56.02,11,Emory Buchenau,Dumas,53.75,72.57,49.9,74.84,197.31,Single-ply,SBD,F
Girls,56.02,12,Klarissa Ortiz,Lamesa,53.07,65.77,31.75,65.77,163.29,Single-ply,SBD,F
Girls,56.02,DQ,Hannah Garrett,Bushland,56.02,,,,,Single-ply,SBD,F
Girls,56.02,DQ,Tennelle Valdez,Plainview,53.75,86.18,,,,Single-ply,SBD,F
Girls,60.1,1,Brie Mowry,Canyon,58.97,124.74,72.57,117.93,315.25,Single-ply,SBD,F
Girls,60.1,2,Kadence Esparza,Seagraves,59.65,117.93,63.5,120.2,301.64,Single-ply,SBD,F
Girls,60.1,3,Destiny Cervantes-Saenz,Dumas,58.97,113.4,63.5,120.2,297.1,Single-ply,SBD,F
Girls,60.1,4,Cheyanne Buck,Perryton,59.65,108.86,65.77,117.93,292.57,Single-ply,SBD,F
Girls,60.1,5,Dalia Becerril,Perryton,59.42,108.86,68.04,106.59,283.5,Single-ply,SBD,F
Girls,60.1,6,Valeria Carreaga,Muleshoe,58.74,102.06,52.16,113.4,267.62,Single-ply,SBD,F
Girls,60.1,7,Ariana Perez #1,Dimmitt,60.1,99.79,40.82,115.67,256.28,Single-ply,SBD,F
Girls,60.1,8,Andrea Arredondo,Plainview,59.65,104.33,49.9,90.72,244.94,Single-ply,SBD,F
Girls,60.1,9,Reagan Barrera,Levelland,59.65,97.52,43.09,104.33,244.94,Single-ply,SBD,F
Girls,60.1,10,Bailey Dettle,Dalhart,56.47,95.25,52.16,92.99,240.4,Single-ply,SBD,F
Girls,60.1,11,Ariana Castellon,Tulia,57.61,90.72,40.82,90.72,222.26,Single-ply,SBD,F
Girls,60.1,12,Cassandra Chavira,Floydada,58.06,90.72,38.56,81.65,210.92,Single-ply,SBD,F
Girls,60.1,13,Paulina Porras,Seagraves,57.83,88.45,43.09,77.11,208.65,Single-ply,SBD,F
Girls,60.1,14,Naveah Liscano,Bovina,57.38,70.31,45.36,81.65,197.31,Single-ply,SBD,F
Girls,60.1,15,Monica Espinosa,Dimmitt,57.83,65.77,34.02,77.11,176.9,Single-ply,SBD,F
Girls,60.1,DQ,Francine Hernandez,Dumas,58.06,102.06,,,,Single-ply,SBD,F
Girls,60.1,DQ,Mia Rabalais,Denton Guyer,58.29,,,,,Single-ply,SBD,F
Girls,67.36,1,Leslie Morales,Perryton,65.09,136.08,70.31,136.08,342.46,Single-ply,SBD,F
Girls,67.36,2,Karissa Bueno,Seagraves,63.05,140.61,58.97,138.35,337.93,Single-ply,SBD,F
Girls,67.36,3,Raquel Mariscal,Plainview,64.41,131.54,63.5,131.54,326.59,Single-ply,SBD,F
Girls,67.36,4,Marlen Estrada,Plainview,65.32,133.81,58.97,129.27,322.05,Single-ply,SBD,F
Girls,67.36,5,Kallie Sanchez,Plainview,63.28,131.54,58.97,111.13,301.64,Single-ply,SBD,F
Girls,67.36,6,Kristina Arzola,Muleshoe,63.96,111.13,52.16,113.4,276.69,Single-ply,SBD,F
Girls,67.36,7,Brooke McKinney,Canyon,66.68,102.06,49.9,111.13,263.08,Single-ply,SBD,F
Girls,67.36,8,Mayra Lozano,Seagraves,66.22,106.59,43.09,104.33,254.01,Single-ply,SBD,F
Girls,67.36,9,Llaila Soto,Seagraves,66.68,99.79,43.09,108.86,251.74,Single-ply,SBD,F
Girls,67.36,10,Kaitlynn Whipple,Levelland,62.6,88.45,54.43,95.25,238.14,Single-ply,SBD,F
Girls,67.36,11,Hannah Bridges,Bushland,60.55,92.99,45.36,92.99,231.33,Single-ply,SBD,F
Girls,67.36,12,Emily Silva,Levelland,61.23,92.99,43.09,90.72,226.8,Single-ply,SBD,F
Girls,67.36,13,Mia Salas,Ralls,61.23,86.18,38.56,102.06,226.8,Single-ply,SBD,F
Girls,67.36,14,Ashleigh Broom,Dimmitt,63.73,90.72,45.36,90.72,226.8,Single-ply,SBD,F
Girls,67.36,15,Madison Wewel,Bushland,61.92,74.84,54.43,81.65,210.92,Single-ply,SBD,F
Girls,67.36,16,Alayna Schones,Levelland,64.41,70.31,45.36,90.72,206.38,Single-ply,SBD,F
Girls,67.36,17,Julissa Porras,Seagraves,66.68,88.45,45.36,65.77,199.58,Single-ply,SBD,F
Girls,67.36,18,Jaleeza Pando,Tulia,63.28,77.11,34.02,86.18,197.31,Single-ply,SBD,F
Girls,67.36,19,Kellie Arguijo,Lamesa,66.22,83.91,29.48,65.77,179.17,Single-ply,SBD,F
Girls,67.36,20,Jolie Bell,Dimmitt,61.46,72.57,38.56,63.5,174.63,Single-ply,SBD,F
Girls,67.36,21,Victoria Esquivel,Floydada,64.41,68.04,31.75,72.57,172.37,Single-ply,SBD,F
Girls,67.36,22,Arriana Caballero,Dimmitt,63.28,72.57,38.56,58.97,170.1,Single-ply,SBD,F
Girls,67.36,23,Elyanna Medellin,Floydada,61.01,61.23,29.48,77.11,167.83,Single-ply,SBD,F
Girls,67.36,24,Viri Gomez,Wolfforth Frenship,66.22,54.43,29.48,65.77,149.69,Single-ply,SBD,F
Girls,67.36,DQ,Nayeli Miranda,Perryton,66.68,151.95,95.25,,,Single-ply,SBD,F
Girls,67.36,DQ,Minnel Leal,Dimmitt,62.6,97.52,,,,Single-ply,SBD,F
Girls,75.07,1,Nicole Overton,Denton Guyer,71.44,122.47,77.11,149.69,349.27,Single-ply,SBD,F
Girls,75.07,2,Alondra Tarango,Perryton,73.94,140.61,74.84,120.2,335.66,Single-ply,SBD,F
Girls,75.07,3,Sulema Granados,Levelland,70.53,113.4,65.77,117.93,297.1,Single-ply,SBD,F
Girls,75.07,4,Carina Sianez,Muleshoe,68.49,111.13,61.23,113.4,285.76,Single-ply,SBD,F
Girls,75.07,5,Claire Johnson,Tulia,68.72,111.13,54.43,111.13,276.69,Single-ply,SBD,F
Girls,75.07,6,Britton Davis,Levelland,68.04,104.33,56.7,111.13,272.16,Single-ply,SBD,F
Girls,75.07,7,Rosemary Villanueva,Dumas,68.95,99.79,52.16,117.93,269.89,Single-ply,SBD,F
Girls,75.07,8,Bronwyn Wright,Bushland,69.63,102.06,45.36,99.79,247.21,Single-ply,SBD,F
Girls,75.07,9,Lucinda Morales,Lamesa,70.99,92.99,52.16,95.25,240.4,Single-ply,SBD,F
Girls,75.07,10,Madison Garcia #2,Floydada,68.49,90.72,43.09,90.72,224.53,Single-ply,SBD,F
Girls,75.07,11,Sadie Brookins,Tulia,70.31,83.91,34.02,95.25,213.19,Single-ply,SBD,F
Girls,75.07,12,Madison Olmos,Wolfforth Frenship,69.4,79.38,34.02,88.45,201.85,Single-ply,SBD,F
Girls,75.07,13,Kaitlyn Aguero,Dimmitt,68.95,63.5,36.29,97.52,197.31,Single-ply,SBD,F
Girls,75.07,14,Jo Vasquez,Dimmitt,68.04,86.18,38.56,61.23,185.97,Single-ply,SBD,F
Girls,75.07,15,Alyse Galindo,Lamesa,72.8,74.84,31.75,43.09,149.69,Single-ply,SBD,F
Girls,75.07,DQ,Annslie Woodard,Argyle Liberty Christian School,73.03,,,,,Single-ply,SBD,F
Girls,82.33,1,Abbey Evans,Tulia,78.47,170.1,77.11,142.88,390.09,Single-ply,SBD,F
Girls,82.33,2,Allexis Ponder,Plainview,81.87,151.95,63.5,142.88,358.34,Single-ply,SBD,F
Girls,82.33,3,Anna Saucedo,Plainview,77.11,149.69,70.31,133.81,353.8,Single-ply,SBD,F
Girls,82.33,4,Lyssa Dunnam,Dumas,81.19,149.69,83.91,120.2,353.8,Single-ply,SBD,F
Girls,82.33,5,San Juanita Arellano,Floydada,78.7,129.27,61.23,122.47,312.98,Single-ply,SBD,F
Girls,82.33,6,Karla Nino,Seagraves,81.19,108.86,58.97,120.2,288.03,Single-ply,SBD,F
Girls,82.33,7,Zimrie Goen,Seagraves,78.02,95.25,61.23,99.79,256.28,Single-ply,SBD,F
Girls,82.33,8,Makayla Gonzales,Lamesa,81.19,83.91,56.7,102.06,242.67,Single-ply,SBD,F
Girls,82.33,9,Janessa Rodriguez,Lamesa,78.93,95.25,43.09,90.72,229.06,Single-ply,SBD,F
Girls,82.33,10,Delaeni Garza,Levelland,75.52,77.11,49.9,97.52,224.53,Single-ply,SBD,F
Girls,82.33,11,Rosalina Gomez,Wolfforth Frenship,80.74,68.04,24.95,68.04,161.03,Single-ply,SBD,F
Girls,90.04,1,Andrea Fabela,Perryton,86.18,158.76,106.59,145.15,410.5,Single-ply,SBD,F
Girls,90.04,2,Elizabeth Montes,Dalhart,90.04,165.56,65.77,142.88,374.21,Single-ply,SBD,F
Girls,90.04,3,Madison Mills,Argyle,88.9,142.88,79.38,131.54,353.8,Single-ply,SBD,F
Girls,90.04,4,Tamber Duran,Levelland,88.22,97.52,56.7,108.86,263.08,Single-ply,SBD,F
Girls,90.04,5,Elena Puente,Lamesa,87.09,102.06,38.56,106.59,247.21,Single-ply,SBD,F
Girls,90.04,6,Veronica Salinas,Tulia,84.82,102.06,36.29,95.25,233.6,Single-ply,SBD,F
Girls,90.04,7,Yazmin Barron,Dimmitt,84.59,72.57,52.16,97.52,222.26,Single-ply,SBD,F
Girls,90.04,8,Kali Copeland,Levelland,87.09,68.04,49.9,102.06,219.99,Single-ply,SBD,F
Girls,90.04,9,Nailea Garcia,Bovina,85.73,86.18,34.02,97.52,217.72,Single-ply,SBD,F
Girls,90.04,10,Kaylea Britt,Floydada,87.77,86.18,29.48,90.72,206.38,Single-ply,SBD,F
Girls,100.02,1,Sirena Minjarez,Seagraves,99.34,222.26,113.4,174.63,510.29,Single-ply,SBD,F
Girls,100.02,2,Sabrina Gonzales,Dimmitt,95.48,192.78,86.18,154.22,433.18,Single-ply,SBD,F
Girls,100.02,3,Makayla Toscano,Muleshoe,98.88,124.74,58.97,124.74,308.44,Single-ply,SBD,F
Girls,100.02,4,Marilyn Martinez,Dimmitt,96.39,81.65,40.82,70.31,192.78,Single-ply,SBD,F
Girls,117.71,1,T'Kia Russell,Plainview,102.97,147.42,79.38,127.01,353.8,Single-ply,SBD,F
Girls,117.71,2,Brittney Landin,Ralls,102.97,136.08,47.63,136.08,319.78,Single-ply,SBD,F
Girls,117.71,3,Maraya Corrales,Dimmitt,106.14,106.59,56.7,115.67,278.96,Single-ply,SBD,F
Girls,117.71,4,Kirstin Montgomery,Levelland,103.87,90.72,58.97,102.06,251.74,Single-ply,SBD,F
Girls,117.71,5,Clarissa Rivera #2,Dimmitt,105.01,70.31,49.9,95.25,215.46,Single-ply,SBD,F
Girls,117.71,DQ,Nicole Caudillo,Lamesa,105.01,,,,,Single-ply,SBD,F
Girls,117.71,DQ,Crystal Gutierrez,Perryton,109.77,206.38,97.52,,,Single-ply,SBD,F
Girls,117.71+,1,Arlene Solis,Dimmitt,125.19,127.01,54.43,140.61,322.05,Single-ply,SBD,F
